/*------------ Fes(6) -> Agadir(1) --------------*/
/***********ONCF**********/
INSERT INTO voyages (id,type_id,societe_id,ville_depart,ville_arrive,depart_time,arrive_time,nextday,tarif,classe) VALUES
(1100,1,1,6,1,'02:30:00','14:29:00','false',295 ,2 ),
(1101,1,1,6,1,'04:50:00','16:29:00','false',295 ,2 ),
(1102,1,1,6,1,'06:50:00','18:29:00','false',295 ,2 ),
(1103,1,1,6,1,'08:50:00','20:29:00','false',295 ,2 ),
(1104,1,1,6,1,'10:50:00','22:29:00','false',295 ,2 ),
(1105,1,1,6,1,'12:50:00','00:31:00','true',295 ,2 ),
(1106,1,1,6,1,'14:50:00','02:29:00','true',295 ,2 ),
(1107,1,1,6,1,'16:50:00','04:29:00','true',295 ,2 );

/***********CTM**********/
INSERT INTO voyages (id,type_id,societe_id,ville_depart,ville_arrive,depart_time,arrive_time,nextday,tarif,classe) VALUES
(1027,2,2,6,1,'20:00:00','08:15:00','true',275 ,3 ),
(1028,2,2,6,1,'21:30:00','09:45:00','true',260 ,3 ),
(1029,2,2,6,1,'22:00:00','10:00:00','true',260 ,3 );



/*------------ Fes(6) -> Rabat(2) --------------*/
/***********ONCF**********/
INSERT INTO voyages (id,type_id,societe_id,ville_depart,ville_arrive,depart_time,arrive_time,nextday,tarif,classe) VALUES
(1108,1,1,6,2,'01:45:00','05:06:00','false',80 ,2 ),
(1109,1,1,6,2,'02:10:00','05:23:00','false',80 ,2 ),
(1110,1,1,6,2,'02:30:00','05:38:00','false',80 ,2 ),
(1111,1,1,6,2,'04:50:00','07:42:00','false',80 ,2 ),
(1112,1,1,6,2,'05:50:00','08:12:00','false',80 ,2 ),
(1113,1,1,6,2,'06:50:00','09:41:00','false',80 ,2 ),
(1114,1,1,6,2,'07:50:00','10:12:00','false',80 ,2 ),
(1115,1,1,6,2,'08:50:00','11:42:00','false',80 ,2 ),
(1116,1,1,6,2,'09:50:00','12:12:00','false',80 ,2 ),
(1117,1,1,6,2,'10:50:00','13:42:00','false',80 ,2 ),
(1118,1,1,6,2,'11:50:00','14:12:00','false',80 ,2 ),
(1119,1,1,6,2,'12:50:00','15:42:00','false',80 ,2 ),
(1120,1,1,6,2,'13:50:00','16:12:00','false',80 ,2 ),
(1121,1,1,6,2,'14:50:00','17:42:00','false',80 ,2 ),
(1122,1,1,6,2,'15:50:00','18:12:00','false',80 ,2 ),
(1123,1,1,6,2,'16:50:00','19:42:00','false',80 ,2 ),
(1124,1,1,6,2,'17:50:00','20:12:00','false',80 ,2 ),
(1125,1,1,6,2,'18:50:00','21:40:00','false',80 ,2 ),
(1126,1,1,6,2,'20:50:00','23:40:00','false',80 ,2 );


/***********CTM**********/
INSERT INTO voyages (id,type_id,societe_id,ville_depart,ville_arrive,depart_time,arrive_time,nextday,tarif,classe) VALUES
(1130,2,2,6,2,'02:15:00','05:15:00','false',75 ,3 ),
(1131,2,2,6,2,'02:30:00','06:15:00','false',70 ,3 ),
(1132,2,2,6,2,'03:00:00','06:00:00','false',70 ,3 ),
(1133,2,2,6,2,'06:30:00','09:15:00','false',65 ,3 ),
(1134,2,2,6,2,'08:30:00','11:15:00','false',75 ,3 ),
(1135,2,2,6,2,'09:45:00','12:45:00','false',70 ,3 ),
(1136,2,2,6,2,'13:30:00','16:15:00','false',75 ,3 ),
(1137,2,2,6,2,'22:00:00','01:30:00','true',75 ,3 );


/*------------ Fes(6) -> Marrakech(3) --------------*/
/***********ONCF**********/
INSERT INTO voyages (id,type_id,societe_id,ville_depart,ville_arrive,depart_time,arrive_time,nextday,tarif,classe) VALUES
(1138,1,1,6,3,'02:30:00','10:00:00','false',195,2 ),
(1139,1,1,6,3,'04:50:00','12:00:00','false',195,2 ),
(1140,1,1,6,3,'06:50:00','14:00:00','false',195,2 ),
(1141,1,1,6,3,'08:50:00','16:00:00','false',195,2 ),
(1142,1,1,6,3,'10:50:00','18:00:00','false',195,2 ),
(1143,1,1,6,3,'12:50:00','20:00:00','false',195,2 ),
(1144,1,1,6,3,'14:50:00','22:00:00','false',195,2 ),
(1145,1,1,6,3,'16:50:00','23:59:00','false',195,2 );

/***********CTM**********/
INSERT INTO voyages (id,type_id,societe_id,ville_depart,ville_arrive,depart_time,arrive_time,nextday,tarif,classe) VALUES
(1146,2,2,6,3,'07:00:00','16:30:00','false',165 ,3 ),
(1147,2,2,6,3,'20:00:00','05:45:00','true',175 ,3 ),
(1148,2,2,6,3,'21:30:00','07:15:00','true',165 ,3 ),
(1149,2,2,6,3,'22:00:00','06:30:00','true',165 ,3 );


/*------------ Fes(6) -> Casablanca(4) --------------*/
/***********ONCF**********/
INSERT INTO voyages (id,type_id,societe_id,ville_depart,ville_arrive,depart_time,arrive_time,nextday,tarif,classe) VALUES
(1150,1,1,6,4,'01:45:00','06:15:00','false',110 ,2 ),
(1151,1,1,6,4,'02:10:00','06:30:00','false',110 ,2 ),
(1152,1,1,6,4,'02:30:00','06:45:00','false',110 ,2 ),
(1153,1,1,6,4,'04:50:00','08:45:00','false',110 ,2 ),
(1154,1,1,6,4,'05:50:00','09:10:00','false',110 ,2 ),
(1155,1,1,6,4,'06:50:00','10:45:00','false',110 ,2 ),
(1156,1,1,6,4,'07:50:00','11:10:00','false',110 ,2 ),
(1157,1,1,6,4,'08:50:00','12:45:00','false',110 ,2 ),
(1158,1,1,6,4,'09:50:00','13:10:00','false',110 ,2 ),
(1159,1,1,6,4,'10:50:00','14:45:00','false',110 ,2 ),
(1160,1,1,6,4,'11:50:00','15:10:00','false',110 ,2 ),
(1161,1,1,6,4,'12:50:00','16:45:00','false',110 ,2 ),
(1162,1,1,6,4,'13:50:00','17:10:00','false',110 ,2 ),
(1163,1,1,6,4,'14:50:00','18:45:00','false',110 ,2 ),
(1164,1,1,6,4,'15:50:00','19:10:00','false',110 ,2 ),
(1165,1,1,6,4,'16:50:00','20:45:00','false',110 ,2 ),
(1166,1,1,6,4,'17:50:00','21:10:00','false',110 ,2 ),
(1167,1,1,6,4,'18:50:00','22:45:00','false',110 ,2 ),
(1168,1,1,6,4,'20:50:00','00:45:00','true',110 ,2 );

/***********CTM**********/
INSERT INTO voyages (id,type_id,societe_id,ville_depart,ville_arrive,depart_time,arrive_time,nextday,tarif,classe) VALUES
(1169,2,2,6,4,'02:15:00','06:45:00','false',95 ,3 ),
(1170,2,2,6,4,'02:30:00','08:00:00','false',85 ,3 ),
(1171,2,2,6,4,'03:00:00','07:45:00','false',85 ,3 ),
(1172,2,2,6,4,'06:30:00','10:30:00','false',75 ,3 ),
(1173,2,2,6,4,'08:30:00','13:15:00','false',100 ,3 ),
(1174,2,2,6,4,'09:45:00','14:30:00','false',85 ,3 ),
(1175,2,2,6,4,'13:30:00','18:00:00','false',100 ,3 ),
(1176,2,2,6,4,'22:00:00','02:35:00','true',95 ,3 );



/*------------ Fes(6) -> Tanger(5) --------------*/
/***********ONCF**********/
INSERT INTO voyages (id,type_id,societe_id,ville_depart,ville_arrive,depart_time,arrive_time,nextday,tarif,classe) VALUES
(1177,1,1,6,5,'01:45:00','07:00:00','false',105 ,2 ),
(1178,1,1,6,5,'02:10:00','07:00:00','false',105 ,2 ),
(1179,1,1,6,5,'07:10:00','12:30:00','false',105 ,2 ),
(1180,1,1,6,5,'10:20:00','14:55:00','false',105 ,2 ),
(1181,1,1,6,5,'13:05:00','17:25:00','false',105 ,2 ),
(1182,1,1,6,5,'17:05:00','21:25:00','false',105 ,2 );


/***********CTM**********/
INSERT INTO voyages (id,type_id,societe_id,ville_depart,ville_arrive,depart_time,arrive_time,nextday,tarif,classe) VALUES
(1183,2,2,6,5,'02:15:00','08:15:00','false',115 ,3 ),
(1184,2,2,6,5,'02:20:00','08:30:00','false',115 ,3 ),
(1185,2,2,6,5,'10:30:00','16:30:00','false',115 ,3 ),
(1186,2,2,6,5,'11:00:00','18:00:00','false',115 ,3 ),
(1187,2,2,6,5,'23:00:00','04:50:00','true ',115 ,3 );



/*------------ Fes(6) -> Meknes(7) --------------*/
/***********ONCF**********/
INSERT INTO voyages (id,type_id,societe_id,ville_depart,ville_arrive,depart_time,arrive_time,nextday,tarif,classe) VALUES
(1188,1,1,6,7,'01:45:00','02:14:00','false',20 ,2 ),
(1189,1,1,6,7,'02:10:00','02:40:00','false',20 ,2 ),
(1190,1,1,6,7,'02:30:00','03:03:00','false',20 ,2 ),
(1191,1,1,6,7,'04:50:00','05:22:00','false',20 ,2 ),
(1192,1,1,6,7,'05:50:00','06:19:00','false',20 ,2 ),
(1193,1,1,6,7,'06:50:00','07:22:00','false',20 ,2 ),
(1194,1,1,6,7,'07:10:00','07:48:00','false',20 ,2 ),
(1195,1,1,6,7,'07:50:00','08:19:00','false',20 ,2 ),
(1196,1,1,6,7,'08:50:00','09:22:00','false',20 ,2 ),
(1197,1,1,6,7,'09:50:00','10:19:00','false',20 ,2 ),
(1198,1,1,6,7,'10:50:00','11:22:00','false',20 ,2 ),
(1199,1,1,6,7,'11:50:00','12:19:00','false',20 ,2 ),
(1200,1,1,6,7,'12:50:00','13:22:00','false',20 ,2 ),
(1201,1,1,6,7,'13:05:00','13:40:00','false',20 ,2 ),
(1202,1,1,6,7,'13:50:00','14:19:00','false',20 ,2 ),
(1203,1,1,6,7,'14:50:00','15:22:00','false',20 ,2 ),
(1204,1,1,6,7,'15:50:00','16:19:00','false',20 ,2 ),
(1205,1,1,6,7,'16:50:00','17:22:00','false',20 ,2 ),
(1206,1,1,6,7,'17:05:00','17:40:00','false',20 ,2 ),
(1207,1,1,6,7,'17:50:00','18:19:00','false',20 ,2 ),
(1208,1,1,6,7,'18:50:00','19:22:00','false',20 ,2 ),
(1209,1,1,6,7,'20:50:00','21:22:00','false',20 ,2 );


/***********CTM**********/
INSERT INTO voyages (id,type_id,societe_id,ville_depart,ville_arrive,depart_time,arrive_time,nextday,tarif,classe) VALUES
(1210,2,2,6,5,'02:15:00','03:15:00','false',25 ,3 ),
(1211,2,2,6,5,'02:20:00','03:25:00','false',25 ,3 ),
(1212,2,2,6,5,'02:30:00','03:00:00','false',25 ,3 ),
(1213,2,2,6,5,'10:30:00','11:30:00','false',25 ,3 ),
(1214,2,2,6,5,'22:00:00','22:55:00','false',25 ,3 ),
(1215,2,2,6,5,'22:15:00','23:15:00','false',25 ,3 ),
(1216,2,2,6,5,'23:00:00','00:10:00','true',25 ,3 );


/*------------ Fes(6) -> Ifrane(8) --------------*/
/***********CTM**********/
INSERT INTO voyages (id,type_id,societe_id,ville_depart,ville_arrive,depart_time,arrive_time,nextday,tarif,classe) VALUES
(1217,2,2,6,8,'07:00:00','07:55:00','false',25 ,3 ),
(1218,2,2,6,8,'20:00:00','20:45:00','false',25 ,3 ),
(1219,2,2,6,8,'21:30:00','22:15:00','false',25 ,3 );



/*------------ Fes(6) -> Beni Mellal(9) --------------*/
/************SUPRATOURS************/
INSERT INTO voyages (id,type_id,societe_id,ville_depart,ville_arrive,depart_time,arrive_time,nextday,tarif,classe) VALUES
(1220,2,3,6,9,'19:30:00','00:59:00','false',172 ,3 );

/***********CTM**********/
INSERT INTO voyages (id,type_id,societe_id,ville_depart,ville_arrive,depart_time,arrive_time,nextday,tarif,classe) VALUES
(1221,2,2,6,9,'07:00:00','12:50:00','false',95 ,3 ),
(1222,2,2,6,9,'20:00:00','01:45:00','true',95 ,3 ),
(1223,2,2,6,9,'21:30:00','03:15:00','true',95 ,3 );





/*------------ Fes(6) -> Kenitra(15) --------------*/
/***********ONCF**********/
INSERT INTO voyages (id,type_id,societe_id,ville_depart,ville_arrive,depart_time,arrive_time,nextday,tarif,classe) VALUES
(1224,1,1,6,15,'01:45:00','04:11:00','false',70 ,2 ),
(1225,1,1,6,15,'02:10:00','04:41:00','false',70 ,2 ),
(1226,1,1,6,15,'02:30:00','05:01:00','false',70 ,2 ),
(1227,1,1,6,15,'04:50:00','07:06:00','false',70 ,2 ),
(1228,1,1,6,15,'05:50:00','07:46:00','false',70 ,2 ),
(1229,1,1,6,15,'06:50:00','09:06:00','false',70 ,2 ),
(1230,1,1,6,15,'07:50:00','09:46:00','false',70 ,2 ),
(1231,1,1,6,15,'08:50:00','11:06:00','false',70 ,2 ),
(1232,1,1,6,15,'09:50:00','11:46:00','false',70 ,2 ),
(1233,1,1,6,15,'10:50:00','13:06:00','false',70 ,2 ),
(1234,1,1,6,15,'11:50:00','13:46:00','false',70 ,2 ),
(1235,1,1,6,15,'12:50:00','15:06:00','false',70 ,2 ),
(1236,1,1,6,15,'13:50:00','15:46:00','false',70 ,2 ),
(1237,1,1,6,15,'14:50:00','17:06:00','false',70 ,2 ),
(1238,1,1,6,15,'15:50:00','17:46:00','false',70 ,2 ),
(1239,1,1,6,15,'16:50:00','19:06:00','false',70 ,2 ),
(1240,1,1,6,15,'17:50:00','19:46:00','false',70 ,2 ),
(1241,1,1,6,15,'18:50:00','21:02:00','false',70 ,2 ),
(1242,1,1,6,15,'20:50:00','23:02:00','false',70 ,2 );



/*------------ Fes(6) -> Khenifra(16) --------------*/
/***********CTM**********/
INSERT INTO voyages (id,type_id,societe_id,ville_depart,ville_arrive,depart_time,arrive_time,nextday,tarif,classe) VALUES
(1243,2,2,6,16,'07:00:00','09:45:00','false',55 ,3 ),
(1244,2,2,6,16,'20:00:00','22:45:00','false',55 ,3 ),
(1245,2,2,6,16,'21:30:00','00:15:00','true',55 ,3 );



/*------------ Fes(6) -> Khoribga(17) --------------*/
/***********ONCF**********/
INSERT INTO voyages (id,type_id,societe_id,ville_depart,ville_arrive,depart_time,arrive_time,nextday,tarif,classe) VALUES
(1246,1,1,6,15,'01:45:00','09:20:00','false',145 ,2 );


/*------------ Fes(6) -> Nador(19) --------------*/
/***********ONCF**********/
INSERT INTO voyages (id,type_id,societe_id,ville_depart,ville_arrive,depart_time,arrive_time,nextday,tarif,classe) VALUES
(1247,1,1,6,19,'01:45:00','05:57:00','false',98 ,2 ),
(1248,1,1,6,19,'02:50:00','09:32:00','false',98 ,2 ),
(1249,1,1,6,19,'10:55:00','17:02:00','false',98 ,2 ),
(1250,1,1,6,19,'17:15:00','23:12:00','false',98 ,2 );

/***********CTM**********/
INSERT INTO voyages (id,type_id,societe_id,ville_depart,ville_arrive,depart_time,arrive_time,nextday,tarif,classe) VALUES
(1251,2,2,6,19,'02:44:00','07:29:00','false',115 ,3 ),
(1252,2,2,6,19,'04:00:00','08:00:00','false',110 ,3 );



/*------------ Fes(6) -> Oujda(20) --------------*/
/***********ONCF**********/
INSERT INTO voyages (id,type_id,societe_id,ville_depart,ville_arrive,depart_time,arrive_time,nextday,tarif,classe) VALUES
(1253,1,1,6,20,'02:50:00','08:10:00','false',110 ,2 ),
(1254,1,1,6,20,'10:55:00','16:35:00','false',110 ,2 ),
(1255,1,1,6,20,'15:25:00','21:00:00','false',110 ,2 );


/***********CTM**********/
INSERT INTO voyages (id,type_id,societe_id,ville_depart,ville_arrive,depart_time,arrive_time,nextday,tarif,classe) VALUES
(1256,2,2,6,20,'02:00:00','06:15:00','false',115 ,3 ),
(1257,2,2,6,20,'05:30:00','10:00:00','false',115 ,3 ),
(1258,2,2,6,20,'12:45:00','18:30:00','false',120 ,3 );


/*------------ Fes(6) -> Tetouan(24) --------------*/
/***********ONCF**********/
INSERT INTO voyages (id,type_id,societe_id,ville_depart,ville_arrive,depart_time,arrive_time,nextday,tarif,classe) VALUES
(1259,1,1,6,24,'01:45:00','08:44:00','false',127 ,2 ),
(1260,1,1,6,24,'02:10:00','08:44:00','false',127 ,2 ),
(1261,1,1,6,24,'07:10:00','13:44:00','false',127 ,2 );


/***********CTM**********/
INSERT INTO voyages (id,type_id,societe_id,ville_depart,ville_arrive,depart_time,arrive_time,nextday,tarif,classe) VALUES
(1262,2,2,6,24,'08:00:00','13:00:00','false',100 ,3 ),
(1263,2,2,6,24,'10:30:00','17:30:00','false',100 ,3 ),
(1264,2,2,6,24,'11:00:00','16:45:00','false',100 ,3 ),
(1265,2,2,6,24,'23:45:00','05:00:00','true',100 ,3 );






















